<?xml version="1.0" encoding="UTF-8" standalone="no"?>
<svg
   xmlns:dc="http://purl.org/dc/elements/1.1/"
   xmlns:cc="http://creativecommons.org/ns#"
   xmlns:rdf="http://www.w3.org/1999/02/22-rdf-syntax-ns#"
   xmlns:svg="http://www.w3.org/2000/svg"
   xmlns="http://www.w3.org/2000/svg"
   xmlns:xlink="http://www.w3.org/1999/xlink"
   xmlns:sodipodi="http://sodipodi.sourceforge.net/DTD/sodipodi-0.dtd"
   xmlns:inkscape="http://www.inkscape.org/namespaces/inkscape"
   width="129.271mm"
   height="134.02896mm"
   viewBox="0 0 763.47479 791.57218"
   version="1.1"
   id="svg816"
   sodipodi:docname="valores_respeto_universal.svg"
   inkscape:version="0.92.3 (2405546, 2018-03-11)">
  <metadata
     id="metadata822">
    <rdf:RDF>
      <cc:Work
         rdf:about="">
        <dc:format>image/svg+xml</dc:format>
        <dc:type
           rdf:resource="http://purl.org/dc/dcmitype/StillImage" />
        <dc:title></dc:title>
      </cc:Work>
    </rdf:RDF>
  </metadata>
  <defs
     id="defs820" />
  <sodipodi:namedview
     pagecolor="#ffffff"
     bordercolor="#666666"
     borderopacity="1"
     objecttolerance="10"
     gridtolerance="10"
     guidetolerance="10"
     inkscape:pageopacity="0"
     inkscape:pageshadow="2"
     inkscape:window-width="1362"
     inkscape:window-height="744"
     id="namedview818"
     showgrid="false"
     fit-margin-top="0"
     fit-margin-left="0"
     fit-margin-right="0"
     fit-margin-bottom="0"
     inkscape:zoom="0.86679494"
     inkscape:cx="36.832711"
     inkscape:cy="197.37544"
     inkscape:window-x="0"
     inkscape:window-y="22"
     inkscape:window-maximized="0"
     inkscape:current-layer="svg816" />
  <path
     id="Selection #4"
     d="M 465.63117,70.430253 C 451.97316,51.908579 450.19899,54.998079 432.8703,44.460149 c -5.56721,-3.38009 -13.96391,-4.35894 -13.96391,4.55777 0,11.1803 11.22619,4.23658 20.72409,8.42728 11.24147,4.95543 18.30754,14.361562 23.26297,25.220675 16.34985,35.804486 1.23886,59.572176 1.20827,93.296606 0,0 -29.0596,-5.68956 -29.0596,-5.68956 -5.12367,-0.71885 -13.88743,-1.08591 -18.29226,-3.50245 -6.24016,-3.42597 -17.17575,-19.5617 -21.47351,-25.9854 -14.85099,-22.19235 -23.58415,-47.565973 -30.02315,-73.413722 0,0 -5.15426,-22.941789 -5.15426,-22.941789 12.52621,-6.699 8.70259,-23.63004 -4.58835,-25.63362 -7.99905,-1.20827 -15.23335,3.77774 -16.45692,11.86855 -1.98828,13.10741 8.09081,9.83438 12.05209,26.00069 8.47316,34.611513 11.94502,47.428331 29.24313,79.470361 0,0 6.39312,12.35797 6.39312,12.35797 0,0 13.1227,18.29226 13.1227,18.29226 0,0 -41.29522,0 -41.29522,0 -5.52133,0.0765 -21.84059,2.86007 -25.57245,1.05532 -3.99186,-1.89652 -9.65085,-18.93462 -9.05435,-23.35474 0.0611,-3.38009 3.02831,-7.44844 0,-12.52622 -4.20601,-8.04492 -17.81813,-5.09308 -17.084,5.62839 0.42826,6.24016 5.72016,6.54605 8.99319,11.24147 2.38595,3.42598 6.72959,18.06284 7.5402,22.54413 -21.07586,1.77417 -50.44135,12.25092 -70.35482,19.97465 0,0 -19.88288,8.21316 -19.88288,8.21316 -2.90596,1.20827 -7.40255,3.67069 -10.56851,2.92126 -3.91541,-0.91767 -7.20373,-6.46959 -9.22261,-9.69673 -4.40482,-7.06607 -12.96975,-25.52656 -12.96975,-33.64796 0,-4.1907 2.26358,-7.90727 1.86593,-12.20503 -0.52001,-5.68956 -4.90955,-8.35081 -10.3697,-7.17313 -5.73544,1.25415 -8.0755,6.1484 -7.12724,11.65443 1.04003,6.05663 4.51189,5.78133 8.07551,13.87213 8.6567,19.71465 8.73318,25.77128 23.49239,44.32354 -12.40386,2.95185 -9.11553,6.04134 -24.47124,6.11781 -29.77844,0.15294 -27.77486,0.87179 -56.58975,6.11781 -7.92256,-13.55095 -27.6678,-7.47903 -28.87606,7.64726 -0.90238,11.22618 8.87083,19.59229 19.69935,17.48164 11.02735,-2.15653 10.905,-10.33909 17.14516,-13.9486 5.55192,-3.21185 36.49274,-6.53076 44.03294,-6.59194 -32.74558,23.26297 -59.11334,47.67303 -81.82571,81.06098 -6.133106,8.99319 -17.389866,23.82888 -20.647606,33.64796 0,0 -22.94179,-6.11781 -22.94179,-6.11781 -4.23658,-13.90273 -16.4569,-9.00848 -18.59814,-1.49887 -0.73414,2.64596 -0.15295,5.16955 1.3918,7.38726 5.99546,8.62611 13.81096,1.6824 19.16404,2.20241 0,0 16.39573,4.14482 16.39573,4.14482 0,0 -6.54605,15.29453 -6.54605,15.29453 -14.33097,34.06091 -23.61476,66.79118 -24.043,104.00277 0,0 -1.25415,15.29453 -1.25415,15.29453 0,0 1.25415,10.70617 1.25415,10.70617 0,0 0,16.82398 0,16.82398 0,0 1.52945,15.29452 1.52945,15.29452 -8.85553,-13.73449 -11.70031,-23.15591 -16.640445,-38.23631 0,0 -5.47544,-16.82398 -5.47544,-16.82398 -0.780013,-8.33552 8.763765,-12.34269 3.747164,-24.45595 -5.215436,-12.61799 -21.871176,-14.49921 -29.4419655,-3.01303 -1.865931,2.84479 -2.50830099,5.76604 -2.56948199,9.11555 -0.290589,14.95803 12.61798749,14.05566 17.38987649,23.03355 0,0 22.330012,54.96853 22.330012,54.96853 0,0 15.49335,26.00068 15.49335,26.00068 0,0 5.9037,19.88289 5.9037,19.88289 0,0 20.31112,55.06029 20.31112,55.06029 9.29907,17.77224 24.960666,44.17059 37.272756,59.64865 32.37851,40.75992 81.74924,76.33499 132.03764,91.0942 0,0 16.82398,3.54833 16.82398,3.54833 11.19559,2.46242 31.70555,6.16369 42.82467,6.30134 10.73675,0.12236 21.5041,-1.3918 32.11851,-2.86007 29.77844,-4.12953 51.32842,-9.26848 72.97017,-32.45498 23.99711,-25.67951 44.07883,-75.76909 64.94056,-95.75903 11.08854,-10.61441 25.32773,-17.45106 39.50577,-22.75826 8.88611,-3.31891 17.95577,-6.50017 27.53014,-6.74488 3.36479,-0.0765 8.88612,-0.21412 11.97561,0.8412 3.3648,1.13179 5.98017,3.99187 9.46731,4.26717 5.3225,0.42824 8.88612,-4.57307 7.49432,-9.55908 -2.60007,-9.32966 -12.28151,-3.12008 -19.89818,-3.13538 -11.42501,-0.0153 -33.58677,4.28248 -44.27765,8.32023 0,0 -16.7628,8.42727 -16.7628,8.42727 0,0 44.35413,-44.0941 44.35413,-44.0941 0,0 22.94179,-19.0264 22.94179,-19.0264 20.86173,-17.78754 34.38209,-31.69025 62.70754,-37.11982 15.79926,-3.0283 31.75145,-2.493 47.41303,1.19298 0,0 16.82398,4.2213 16.82398,4.2213 0.2906,5.72015 0.33649,9.77319 4.97073,13.85683 10.64498,9.37554 27.0713,4.35894 28.89136,-9.26848 1.25415,-9.26849 -4.84837,-16.90045 -13.9792,-18.39932 -7.98374,-1.31532 -10.95088,4.37423 -19.88289,3.1048 0,0 -13.76507,-3.82364 -13.76507,-3.82364 0,0 -26.00069,-3.68598 -26.00069,-3.68598 -18.30755,-1.25415 -38.64927,4.35894 -55.0603,12.09797 11.7615,-16.50279 27.56074,-29.38078 41.03522,-44.35412 16.28867,-18.09343 30.71141,-40.46932 40.65285,-62.70756 0,0 8.53434,-18.03224 8.53434,-18.03224 2.86008,-4.05306 7.24961,-5.91899 8.50376,-11.08854 1.42239,-5.82721 -2.233,-11.48619 -8.48847,-11.48619 -3.67067,0 -6.91312,2.15653 -8.19785,5.5978 -1.86594,4.726 1.11649,8.56493 0,14.02508 -0.99415,5.21544 -7.92257,20.54055 -10.62971,25.57245 -4.92483,9.17672 -17.3134,30.51258 -23.49238,38.23632 0,0 -41.66229,44.35412 -41.66229,44.35412 0,0 -26.13835,29.0596 -26.13835,29.0596 7.5708,-17.94048 9.84968,-29.57962 8.62612,-48.94248 -0.90239,-8.36611 3.42597,-12.83212 0,-17.87931 -2.84479,-4.92484 -12.34269,-4.26718 -13.73449,2.72242 -1.48356,7.50962 5.00131,5.3378 5.10837,21.2747 0.0765,12.0062 -0.0459,22.08529 -4.12952,33.64795 -11.24147,31.88909 -43.2988,51.48137 -66.21,74.94317 -32.50087,33.32677 -45.07297,52.32257 -67.95357,91.76716 0,0 -16.18161,27.53014 -16.18161,27.53014 -1.45298,-5.13896 -1.49887,-6.959 -1.52945,-12.23562 -0.18355,-34.70328 0.0153,-58.89921 18.15459,-90.2377 11.34854,-19.57699 24.96067,-31.44554 39.82695,-47.41303 10.84382,-11.63913 33.35736,-41.21875 40.95874,-55.06028 11.34854,-20.66291 19.25581,-42.80938 24.59359,-65.76646 0,0 9.10025,-42.82468 9.10025,-42.82468 4.77189,-16.07455 11.76149,-29.59491 19.42404,-44.35412 11.1803,-21.5347 37.42571,-49.63074 57.47683,-63.21227 4.66483,-3.15069 19.43935,-14.22392 24.47124,-13.50507 5.3378,0.76472 13.33683,11.45559 17.08399,15.58511 14.62156,16.18161 26.50541,34.77975 37.67042,53.48497 26.70424,44.78236 40.92815,107.2605 43.19174,159.06306 0,0 1.34592,13.76508 1.34592,13.76508 0,0 -1.4071,16.82396 -1.4071,16.82396 0,0 0,6.11782 0,6.11782 0,0 -3.50244,33.64795 -3.50244,33.64795 0,0 -16.38045,68.82537 -16.38045,68.82537 0,0 6.11781,0 6.11781,0 0,0 9.14613,-27.53015 9.14613,-27.53015 0,0 9.8038,-39.76577 9.8038,-39.76577 11.50148,-63.36521 6.22487,-132.34352 -16.53339,-192.71101 -7.60138,-20.1429 -18.30755,-44.38472 -29.39608,-62.70756 0,0 -21.96294,-33.64795 -21.96294,-33.64795 0,0 -19.88288,-21.41234 -19.88288,-21.41234 0,0 32.1185,-13.76507 32.1185,-13.76507 3.53304,3.04361 6.04134,5.50602 10.70617,6.77547 25.51127,6.959 26.35247,-35.83507 1.52945,-31.8279 -10.95088,1.77416 -12.18973,11.10382 -16.12043,14.8051 -2.44712,2.30946 -20.6782,9.23788 -25.17479,11.13441 -3.01302,1.25414 -7.43313,3.42597 -10.70617,2.70713 -3.80833,-0.8412 -12.0062,-8.61081 -15.29452,-11.44031 -9.7732,-8.41198 -19.69934,-17.23693 -30.58905,-24.19593 -23.61475,-15.0804 -47.09185,-30.55847 -73.41372,-40.66815 0,0 -18.35343,-6.33193 -18.35343,-6.33193 -11.59325,-4.26718 -23.03356,-8.74847 -35.17741,-11.1956 0,0 9.92615,-15.29452 9.92615,-15.29452 0,0 28.95254,-36.70686 28.95254,-36.70686 7.54019,-10.14027 15.66159,-11.24148 12.20502,-19.71465 -2.49301,-6.10251 -9.71203,-6.1331 -12.80152,-1.26944 -3.12008,4.92484 1.77417,4.83307 -6.20957,16.41102 -8.90142,12.93917 -33.20441,41.83053 -38.19043,53.51555 0,0 -12.23562,-1.52945 -12.23562,-1.52945 4.09893,-16.67104 7.67785,-45.53181 7.64726,-62.70756 -0.0306,-23.033555 -9.45202,-57.201521 -0.79531,-78.002081 5.35308,-12.89328 17.17575,-23.11003 31.36906,-24.36418 8.64142,-0.76473 22.51355,10.43087 26.26071,-1.80475 1.75886,-5.7507398 -3.80834,-11.33324978 -9.42143,-11.37912978 -4.38953,-0.0306 -7.89197,3.19655998 -12.23562,4.58835998 -5.06249,1.60592 -10.85911,0.33648 -21.41233,5.9342698 -25.60304,13.55095 -26.0007,33.98444 -26.0007,59.143934 z m 1.52946,0 c 0,0 0,1.529453 0,1.529453 0,0 -1.52946,-1.529453 -1.52946,-1.529453 0,0 1.52946,0 1.52946,0 z M 399.86471,570.56124 c 0,0 -19.91348,-53.53083 -19.91348,-53.53083 0,0 -12.5415,-24.47124 -12.5415,-24.47124 0,0 -21.93236,-47.41303 -21.93236,-47.41303 0,0 -11.37912,-53.53084 -11.37912,-53.53084 4.78718,-4.61896 5.09307,-5.6131 4.58836,-12.23562 0,0 30.58905,-17.52753 30.58905,-17.52753 0,0 21.41234,-11.71562 21.41234,-11.71562 3.54833,-1.89651 8.53434,-5.24602 12.23562,-6.14839 5.23073,-1.28474 12.22033,0.76473 14.68274,-6.07192 1.85064,-5.09309 -3.51775,-10.58382 -8.41199,-9.40614 -5.78133,1.40709 -3.94598,7.23431 -12.48033,13.26036 0,0 -39.674,22.80413 -39.674,22.80413 -3.83893,2.41654 -19.13346,13.78037 -22.6512,8.04493 -2.17182,-3.54833 1.56005,-13.85684 2.73772,-17.71107 4.11424,-13.50506 6.20959,-27.40779 8.54965,-41.29522 2.87536,-17.20634 2.38594,-34.59622 2.18711,-52.00138 0,0 -4.16011,-33.64796 -4.16011,-33.64796 0,0 -1.13179,-12.23562 -1.13179,-12.23562 0,0 -5.41426,-24.47124 -5.41426,-24.47124 19.27109,-2.53889 38.67985,-3.0895 58.11919,-3.05891 5.21544,0.0153 19.8676,0.67296 24.0277,3.0895 3.77775,2.20241 9.32966,10.0485 12.11327,13.73448 10.84381,14.40744 13.76507,18.56756 20.87702,35.17741 8.59553,20.08171 11.44031,41.18816 13.59684,62.70756 3.8848,38.87868 4.69541,70.09481 -4.64954,108.59113 0,0 -3.9307,15.29453 -3.9307,15.29453 -9.05435,25.4042 -20.3723,37.82335 -32.24085,59.64865 -12.74034,23.41591 -24.62419,57.33917 -25.20538,84.11988 z m 62.70756,-374.71588 c 0,0 -1.52945,38.23632 -1.52945,38.23632 0,0 -11.25678,-19.88288 -11.25678,-19.88288 0,0 -16.27337,-22.94179 -16.27337,-22.94179 0,0 29.0596,4.58835 29.0596,4.58835 z m -131.53292,-3.0589 c 0,0 6.97429,38.23631 6.97429,38.23631 2.75303,17.55812 3.76246,35.78919 3.73187,53.53085 -0.0306,19.22522 -4.54248,39.97988 -8.35081,58.77686 -1.57534,7.78491 -3.05891,8.58023 -3.88481,17.69576 0,0 -7.2496,-27.53014 -7.2496,-27.53014 -4.94014,-17.77224 -12.96976,-41.17287 -22.88061,-56.58975 -6.4237,-9.98732 -20.18878,-26.61248 -29.53373,-33.81619 0,0 -30.57376,-19.71465 -30.57376,-19.71465 31.06318,-17.68047 57.12505,-24.27241 91.76716,-30.58905 z m 140.70963,4.58836 c 0,0 -1.52945,9.17671 -1.52945,9.17671 -1.65181,-4.63424 -1.34592,-5.26131 1.52945,-9.17671 z m 9.17672,1.52945 c 0,0 44.35412,15.38629 44.35412,15.38629 0,0 64.237,30.28316 64.237,30.28316 0,0 56.58975,41.50935 56.58975,41.50935 0,0 -33.64796,26.12304 -33.64796,26.12304 -21.70292,17.9099 -36.95157,34.9327 -50.68605,59.5263 -9.66614,17.3287 -17.344,35.78919 -22.16177,55.0603 0,0 -8.87083,42.82467 -8.87083,42.82467 -7.73903,27.11718 -18.93462,49.50838 -33.69383,73.41372 -21.68765,35.13152 -77.1303,71.82309 -81.88689,117.76784 -2.63066,-6.1331 -4.49659,-26.50541 -4.58836,-33.64796 0,0 -1.46828,-24.47124 -1.46828,-24.47124 0,0 1.52945,-16.82398 1.52945,-16.82398 0,0 0,-13.76507 0,-13.76507 3.15068,-31.06317 10.00263,-60.24513 26.24541,-87.17879 4.466,-7.38725 14.85099,-26.15364 21.10645,-30.58905 0.0153,-7.80021 8.32022,-23.33944 11.21088,-32.1185 5.5978,-17.00752 10.17086,-41.78465 10.20146,-59.64865 0,0 -1.95771,-62.70756 -1.95771,-62.70756 -3.77775,-31.36907 -11.66972,-50.13546 -3.59421,-82.59044 1.69769,-6.77547 3.24244,-12.43445 7.08137,-18.35343 z m -159.06307,177.4165 c -7.08137,9.63554 0.96356,12.61798 2.96714,21.47351 0,0 3.54833,21.35116 3.54833,21.35116 1.63651,8.70259 6.46958,25.19009 9.66614,33.64796 0,0 10.49204,26.00069 10.49204,26.00069 0,0 28.37135,55.0603 28.37135,55.0603 13.1074,31.64437 24.18064,89.54944 24.48653,123.88565 0,0 -15.76865,-33.64796 -15.76865,-33.64796 -8.3814,-18.26166 -16.44162,-32.6844 -28.40194,-48.94248 0,0 -18.79697,-24.47123 -18.79697,-24.47123 0,0 -17.16046,-18.35344 -17.16046,-18.35344 0,0 -26.71953,-36.70686 -26.71953,-36.70686 -9.39084,-13.24506 -23.14062,-34.97858 -27.51485,-50.47193 -3.53304,-12.55681 -7.81551,-28.37135 -7.87669,-41.29522 -0.0611,-13.9792 -0.67295,-36.00332 5.65898,-48.6213 2.47771,-4.95543 6.9743,-5.85781 9.84968,-10.00263 3.79304,-5.42955 1.69769,-11.77678 -3.44127,-15.47806 -6.34723,-4.55776 -13.30624,0.13766 -15.00394,6.80607 -1.42238,5.56721 2.44713,8.74846 2.03418,15.29453 -0.30589,4.71071 -6.50018,20.6782 -6.74489,41.29522 -0.26,24.04299 8.28963,55.21324 19.40875,76.47263 0,0 21.88647,36.70686 21.88647,36.70686 0,0 -44.35412,-28.7843 -44.35412,-28.7843 -18.52167,-10.07909 -31.46085,-12.11326 -47.27538,-27.9431 0,0 -14.02509,-16.68632 -14.02509,-16.68632 -19.80641,-23.85947 -50.71665,-64.0229 -77.87972,-78.00209 9.74261,-22.6206 34.73387,-57.64506 52.06257,-74.88199 0,0 11.7462,-10.01792 11.7462,-10.01792 0,0 14.19331,-12.98505 14.19331,-12.98505 7.89198,-6.77547 30.97142,-24.53242 41.29522,-23.81358 15.21805,1.05532 35.72802,16.07455 45.74593,26.87248 28.87606,31.09377 39.41399,75.7385 47.55068,116.2384 z M 194.91807,452.7934 c 0,0 -35.17741,-10.14027 -35.17741,-10.14027 0,0 -18.35344,-4.45072 -18.35344,-4.45072 0,0 -15.29452,-2.56948 -15.29452,-2.56948 -5.81192,-1.82004 -8.41198,-5.30719 -12.23562,-6.31663 -9.74261,-2.56948 -17.512226,12.23562 -7.43314,19.2864 8.04492,5.62838 10.50734,-2.93655 22.72766,-1.25416 18.82757,2.60007 44.58355,10.38499 62.70756,16.67104 0,0 42.82467,16.71692 42.82467,16.71692 31.58319,15.79924 69.78892,44.9506 92.85306,71.47132 9.60497,11.04264 17.71106,23.1712 26.01599,35.1774 11.57796,16.76281 33.49502,53.51554 35.60566,73.41372 -15.69218,-11.22618 -17.8793,-16.97692 -38.23631,-27.11718 -8.9626,-4.46601 -18.01695,-6.31665 -27.53015,-9.16143 -22.22294,-6.65312 -44.24706,-9.65084 -67.29591,-11.27206 0,0 -18.35343,-1.39181 -18.35343,-1.39181 -41.34111,-0.0611 -77.69619,2.38595 -116.2384,-16.45691 -7.92256,-3.86951 -21.2441,-9.42142 -26.750116,-16.12042 -4.1907,-5.09308 -7.95316,-25.97011 -9.06966,-33.18912 -6.60723,-42.39643 -5.53662,-41.99877 -5.47544,-84.11989 0.0459,-29.96199 11.22619,-74.86671 26.000696,-100.94388 11.42501,3.6401 20.4029,13.30624 29.05959,21.28998 0,0 10.27793,9.43672 10.27793,9.43672 0,0 49.37073,61.04046 49.37073,61.04046 z m 99.41441,53.53084 c 0,0 0,1.52945 0,1.52945 0,0 -1.52945,-1.52945 -1.52945,-1.52945 0,0 1.52945,0 1.52945,0 z m 1.52946,1.52945 c 0,0 0,1.52946 0,1.52946 0,0 -1.52946,-1.52946 -1.52946,-1.52946 0,0 1.52946,0 1.52946,0 z M 52.678974,526.20712 c 0,0 0,1.52946 0,1.52946 0,0 -1.52945,-1.52946 -1.52945,-1.52946 0,0 1.52945,0 1.52945,0 z m 542.955656,12.23562 c 0,0 0,1.52946 0,1.52946 0,0 -1.52945,-1.52946 -1.52945,-1.52946 0,0 1.52945,0 1.52945,0 z m -19.88288,10.70617 c 0,0 0,1.52946 0,1.52946 0,0 -1.52945,-1.52946 -1.52945,-1.52946 0,0 1.52945,0 1.52945,0 z m -1.52945,1.52946 c 0,0 0,1.52945 0,1.52945 0,0 -1.52946,-1.52945 -1.52946,-1.52945 0,0 1.52946,0 1.52946,0 z M 100.092,593.50303 c 0,0 0,1.52945 0,1.52945 0,0 -1.529446,-1.52945 -1.529446,-1.52945 0,0 1.529446,0 1.529446,0 z m 1.52946,1.52945 c 27.01014,19.37817 69.49832,29.01372 102.47332,29.0596 0,0 42.82467,0 42.82467,0 0,0 18.35343,1.39181 18.35343,1.39181 22.60532,1.56004 35.97273,2.72243 58.1192,9.10024 38.54221,11.08852 79.47036,38.25161 79.53154,82.80456 0,0 0,6.11781 0,6.11781 -0.16824,13.53565 -4.80249,28.4937 -15.35571,37.51747 -10.56851,9.03907 -24.77713,11.53208 -38.17513,13.03094 -19.53112,2.18711 -43.54352,1.91181 -62.70756,-2.75302 0,0 -24.47124,-7.38726 -24.47124,-7.38726 -10.21675,-3.83891 -33.72443,-12.03678 -39.76577,-20.52525 -10.87441,-0.0918 -26.62777,-13.99449 -35.17741,-20.80055 -30.25257,-24.07358 -51.17548,-51.00725 -69.68186,-84.73168 0,0 -12.67916,-27.53014 -12.67916,-27.53014 -2.30947,-5.39897 -4.87896,-9.37554 -3.28832,-15.29453 z m 394.59876,44.35412 c 0,0 0,1.52946 0,1.52946 0,0 -1.52945,-1.52946 -1.52945,-1.52946 0,0 1.52945,0 1.52945,0 z m -93.2966,19.88289 c 0,0 0,1.52945 0,1.52945 0,0 -1.52946,-1.52945 -1.52946,-1.52945 0,0 1.52946,0 1.52946,0 z m -12.23562,1.52945 c 0,0 0,1.52945 0,1.52945 0,0 -1.52946,-1.52945 -1.52946,-1.52945 0,0 1.52946,0 1.52946,0 z m 1.52945,1.52945 c 0,0 0,1.52946 0,1.52946 0,0 -1.52945,-1.52946 -1.52945,-1.52946 0,0 1.52945,0 1.52945,0 z m 1.52945,3.05891 c 0,0 0,1.52945 0,1.52945 0,0 -1.52945,-1.52945 -1.52945,-1.52945 0,0 1.52945,0 1.52945,0 z"
     style="fill:#5b75a5;fill-opacity:1;stroke:#446d9c;stroke-width:1.52945256;stroke-opacity:1"
     inkscape:connector-curvature="0" />
  <circle
     style="opacity:1;fill:#80bdc1;fill-opacity:1;stroke:none;stroke-width:1.66021764;stroke-miterlimit:4;stroke-dasharray:none;stroke-dashoffset:0;stroke-opacity:1"
     id="circle828"
     cx="581.6496"
     cy="418.88541"
     r="75.844078" />
  <a
     id="a5978"
     xlink:href="/valores/respeto-universal/"
     target="_top"
     transform="translate(-61.485936,163.73871)">
    <text
       id="text834"
       y="244.08641"
       x="645.71454"
       style="font-style:normal;font-variant:normal;font-weight:normal;font-stretch:normal;font-size:27.08558273px;line-height:1.25;font-family:sans-serif;-inkscape-font-specification:'sans-serif, Normal';font-variant-ligatures:normal;font-variant-caps:normal;font-variant-numeric:normal;font-feature-settings:normal;text-align:center;letter-spacing:0px;word-spacing:0px;writing-mode:lr-tb;text-anchor:middle;fill:#ffffff;fill-opacity:1;stroke:none;stroke-width:0.31936228"
       xml:space="preserve"><tspan
         style="font-style:normal;font-variant:normal;font-weight:normal;font-stretch:normal;font-size:27.08558273px;font-family:sans-serif;-inkscape-font-specification:'sans-serif, Normal';font-variant-ligatures:normal;font-variant-caps:normal;font-variant-numeric:normal;font-feature-settings:normal;text-align:center;writing-mode:lr-tb;text-anchor:middle;fill:#ffffff;stroke-width:0.31936228"
         y="244.08641"
         x="645.71454"
         id="tspan832"
         sodipodi:role="line">Respeto</tspan><tspan
         id="tspan836"
         style="font-style:normal;font-variant:normal;font-weight:normal;font-stretch:normal;font-size:27.08558273px;font-family:sans-serif;-inkscape-font-specification:'sans-serif, Normal';font-variant-ligatures:normal;font-variant-caps:normal;font-variant-numeric:normal;font-feature-settings:normal;text-align:center;writing-mode:lr-tb;text-anchor:middle;fill:#ffffff;stroke-width:0.31936228"
         y="277.94339"
         x="645.71454"
         sodipodi:role="line">universal</tspan></text>
  </a>
  <circle
     r="78.321167"
     cy="642.16534"
     cx="633.31287"
     id="circle830"
     style="opacity:1;fill:#5b75a5;fill-opacity:1;stroke:none;stroke-width:1.71444082;stroke-miterlimit:4;stroke-dasharray:none;stroke-dashoffset:0;stroke-opacity:1" />
  <a
     id="a5983"
     xlink:href="/valores/pluralidad/"
     target="_top"
     transform="translate(-17.732298,163.73871)">
    <text
       xml:space="preserve"
       style="font-style:normal;font-variant:normal;font-weight:normal;font-stretch:normal;font-size:27.08558273px;line-height:1.25;font-family:sans-serif;-inkscape-font-specification:'sans-serif, Normal';font-variant-ligatures:normal;font-variant-caps:normal;font-variant-numeric:normal;font-feature-settings:normal;text-align:center;letter-spacing:0px;word-spacing:0px;writing-mode:lr-tb;text-anchor:middle;fill:#ffffff;fill-opacity:1;stroke:none;stroke-width:0.31936228"
       x="649.96741"
       y="489.77792"
       id="text842"><tspan
         sodipodi:role="line"
         x="649.96741"
         y="489.77792"
         style="font-style:normal;font-variant:normal;font-weight:normal;font-stretch:normal;font-size:27.08558273px;font-family:sans-serif;-inkscape-font-specification:'sans-serif, Normal';font-variant-ligatures:normal;font-variant-caps:normal;font-variant-numeric:normal;font-feature-settings:normal;text-align:center;writing-mode:lr-tb;text-anchor:middle;fill:#ffffff;stroke-width:0.31936228"
         id="tspan840">Pluralidad</tspan></text>
  </a>
  <circle
     r="71.385956"
     cy="286.30228"
     cx="436.07187"
     id="circle826"
     style="opacity:1;fill:#5b75a5;fill-opacity:1;stroke:none;stroke-width:1.56262982;stroke-miterlimit:4;stroke-dasharray:none;stroke-dashoffset:0;stroke-opacity:1" />
  <a
     id="a5974"
     xlink:href="/valores/equidad/"
     target="_top"
     transform="translate(-14.481763,195.58992)">
    <text
       id="text848"
       y="97.971718"
       x="449.19904"
       style="font-style:normal;font-variant:normal;font-weight:normal;font-stretch:normal;font-size:27.08558273px;line-height:1.25;font-family:sans-serif;-inkscape-font-specification:'sans-serif, Normal';font-variant-ligatures:normal;font-variant-caps:normal;font-variant-numeric:normal;font-feature-settings:normal;text-align:center;letter-spacing:0px;word-spacing:0px;writing-mode:lr-tb;text-anchor:middle;fill:#ffffff;fill-opacity:1;stroke:none;stroke-width:0.31936228"
       xml:space="preserve"><tspan
         id="tspan846"
         style="font-style:normal;font-variant:normal;font-weight:normal;font-stretch:normal;font-size:27.08558273px;font-family:sans-serif;-inkscape-font-specification:'sans-serif, Normal';font-variant-ligatures:normal;font-variant-caps:normal;font-variant-numeric:normal;font-feature-settings:normal;text-align:center;writing-mode:lr-tb;text-anchor:middle;fill:#ffffff;stroke-width:0.31936228"
         y="97.971718"
         x="449.19904"
         sodipodi:role="line">Equidad</tspan></text>
  </a>
  <circle
     style="opacity:1;fill:#5b75a5;fill-opacity:1;stroke:#5b75a5;stroke-width:1.76964486;stroke-miterlimit:4;stroke-dasharray:none;stroke-dashoffset:0;stroke-opacity:1"
     id="path824"
     cx="166.26611"
     cy="454.45538"
     r="80.843063" />
  <a
     id="a5969"
     xlink:href="/valores/justicia-ambiental/"
     target="_top"
     transform="translate(12.427533,221.42727)">
    <text
       xml:space="preserve"
       style="font-style:normal;font-variant:normal;font-weight:normal;font-stretch:normal;font-size:27.08558273px;line-height:1.25;font-family:sans-serif;-inkscape-font-specification:'sans-serif, Normal';font-variant-ligatures:normal;font-variant-caps:normal;font-variant-numeric:normal;font-feature-settings:normal;text-align:center;letter-spacing:0px;word-spacing:0px;writing-mode:lr-tb;text-anchor:middle;fill:#ffffff;fill-opacity:1;stroke:none;stroke-width:0.31936228"
       x="151.59631"
       y="225.38321"
       id="text852"><tspan
         sodipodi:role="line"
         x="151.59631"
         y="225.38321"
         style="font-style:normal;font-variant:normal;font-weight:normal;font-stretch:normal;font-size:27.08558273px;font-family:sans-serif;-inkscape-font-specification:'sans-serif, Normal';font-variant-ligatures:normal;font-variant-caps:normal;font-variant-numeric:normal;font-feature-settings:normal;text-align:center;writing-mode:lr-tb;text-anchor:middle;fill:#ffffff;stroke-width:0.31936228"
         id="tspan850">Justicia</tspan><tspan
         id="tspan854"
         sodipodi:role="line"
         x="151.59631"
         y="259.24017"
         style="font-style:normal;font-variant:normal;font-weight:normal;font-stretch:normal;font-size:27.08558273px;font-family:sans-serif;-inkscape-font-specification:'sans-serif, Normal';font-variant-ligatures:normal;font-variant-caps:normal;font-variant-numeric:normal;font-feature-settings:normal;text-align:center;writing-mode:lr-tb;text-anchor:middle;fill:#ffffff;stroke-width:0.31936228">ambiental</tspan></text>
  </a>
</svg>
